…
Para consultar los registros con alertas utilizar la función cie\_tbl\_warnings() que construye un data.frame(tibble) con los registros individuales y el warning detectado.

``` r
obj_check %>% 
 cie_tbl_warnings()
```

    ## # A tibble: 376 x 8
    ##     juri codmuer entity              useless  edad unieda  sexo warning   
    ##    <int> <chr>   <chr>               <chr>   <int>  <int> <int> <chr>     
    ##  1     6 I509    INSUFICIENCIA CARD~ 2          74      1     2 Useless c~
    ##  2     6 I509    INSUFICIENCIA CARD~ 2          88      1     2 Useless c~
    ##  3     2 I509    INSUFICIENCIA CARD~ 2          71      1     1 Useless c~
    ##  4     6 G934    ENCEFALOPATIA NO E~ 2           7      1     2 Useless c~
    ##  5     6 J189    NEUMONIA, NO ESPEC~ 0          20      1     2 Suspected~
    ##  6     6 I509    INSUFICIENCIA CARD~ 2          85      1     2 Useless c~
    ##  7    50 I10X    HIPERTENSION ESENC~ 1          98      1     2 Useless c~
    ##  8     6 A419    SEPSIS, NO ESPECIF~ 2          80      1     1 Useless c~
    ##  9    66 J81X    EDEMA PULMONAR      2          71      1     1 Useless c~
    ## 10    82 R99X    OTRAS CAUSAS MAL D~ 5          49      1     1 Useless c~
    ## # ... with 366 more rows
